Team,ID
CSKA Moscow,3
Olympiacos Piraeus,12
Anadolu Efes Istanbul,2
Maccabi FOX Tel Aviv,11
FC Barcelona,5
LDLC ASVEL Villeurbanne,10
Panathinaikos OPAP Athens,13
FC Bayern Munich,6
Zenit St Petersburg,17
Khimki Moscow Region,9
Crvena Zvezda mts Belgrade,4
Real Madrid,14
Zalgiris Kaunas,16
KIROLBET Baskonia Vitoria-Gasteiz,8
AX Armani Exchange Milan,1
Fenerbahce Beko Istanbul,7
ALBA Berlin,0
Valencia Basket,15
